/<</"/
/>>/"/
/–/-/
/&quot;/"/
/&dquo;/"/
//'/
/\r// 
/\f/ / 
/\x0b/ /
/´/'/
/&p1;/./
/&p2;/./
/&to;/-/
/&lt;/</
/&gt;/>/
/&amp;/&/
/&#39;/'/
/&ndash;/-/
/&mdash;/-/
/`/'/
/\.\./.../
/•/./
/\.\,/. ,/
/…\./.../
/…/.../
/—/-/
/’/'/
/“/"/
/”/"/
/”/"/
/“/"/
/'''/'"/
/''/"/
/‐/-/
/--/-/
/\t+/ /
